{
	// Allows sponges to attempt to eat mobs that stand on them
	"carnivorousSponges": true,
	// Sponges give mining fatigue and slowness after consuming a mob
	"spongesHardToEscape": true,
	// Sponges consuming you hurts you
	"gettingEatenHurts": true,
	/* Allows sponges to die when there is not enough water (but not completely on land)
	   If sponges are able to reproduce, this is recommended otherwise there may be too many sponges, if thats even possible!
	*/
	"spongesDie": true,
	// Sponges sink when theyre floating in water
	"spongesSink": true,
	// Allows sponges to move around
	"spongesMove": true,
	// Allows sponges to reproduce when conditions are met
	"spongesReproduce": true,
	// Sponges die when not near prismarine, more blocks can be added with the "carnivoroussponges:sponges_die_without" tag
	"spongesDieWithoutPrismarine": true
}