{
	"darkOverworld": true,
	"darkDefault": true,
	"darkNether": true,
	"darkNetherFog": 0.5,
	"darkEnd": false,
	"darkEndFog": 0.0,
	"darkSkyless": true,
	"blockLightOnly": false,
	"ignoreMoonPhase": false
}