{
  "volume": 50,
  "clientPlayerVolume": 100,
  "otherPlayerVolume": 100,
  "hostileEntitiesVolume": 100,
  "passiveEntitiesVolume": 100,
  "runningVolumeIncrease": 0,
  "wetSoundsVolume": 50,
  "foliageSoundsVolume": 100,
  "maxSteppingEntities": 50,
  "disabled": false,
  "firstRun": true,
  "multiplayer": true,
  "global": true,
  "footwear": true,
  "visualiser": false,
  "exclusive": false,
  "stance": "NONE",
  "targetEntities": "ALL"
}